<?xml version='1.0' encoding='UTF-8' standalone='no'?>
<!-- Created with Inkscape (http://www.inkscape.org/) -->
<svg inkscape:version="0.92.3 (2405546, 2018-03-11)" id="svg2" xmlns:sodipodi="http://sodipodi.sourceforge.net/DTD/sodipodi-0.dtd" xmlns="http://www.w3.org/2000/svg" xmlns:rdf="http://www.w3.org/1999/02/22-rdf-syntax-ns#" xmlns:svg="http://www.w3.org/2000/svg" width="279.39999mm" version="1.1" viewBox="0 0 279.40001 215.9" xmlns:cc="http://creativecommons.org/ns#" xmlns:dc="http://purl.org/dc/elements/1.1/" sodipodi:docname="USLetter_Landscape_blank.svg" xmlns:inkscape="http://www.inkscape.org/namespaces/inkscape" height="215.89999mm">
 <!-- Working space 10 10 269 205 -->
 <defs id="defs4"/>
 <sodipodi:namedview bordercolor="#666666" inkscape:document-units="mm" id="base" inkscape:showpageshadow="false" inkscape:cx="527.99999" inkscape:pageopacity="0.0" inkscape:zoom="0.64460786" showguides="true" inkscape:window-y="26" inkscape:pageshadow="2" inkscape:window-maximized="1" inkscape:guide-bbox="true" inkscape:window-width="1366" inkscape:window-x="0" inkscape:window-height="715" pagecolor="#ffffff" inkscape:cy="470.05322" inkscape:current-layer="svg2" borderopacity="1.0" units="mm" showgrid="false">
  <sodipodi:guide id="guide4606" orientation="0,1" inkscape:locked="false" position="196.1368,22.514151"/>
  <sodipodi:guide id="guide4608" orientation="1,0" inkscape:locked="false" position="163.68397,54.764151"/>
 </sodipodi:namedview>
 <metadata id="metadata7">
  <rdf:RDF>
   <cc:Work rdf:about="">
    <dc:format>image/svg+xml</dc:format>
    <dc:type rdf:resource="http://purl.org/dc/dcmitype/StillImage"/>
    <dc:title/>
   </cc:Work>
  </rdf:RDF>
 </metadata>
</svg>
